Cannabis_P
…
data_separate <- data %>%
  separate_rows(effects, sep = ",")%>%
  separate_rows(flavor , sep = ",")%>%
  filter(!is.na(flavor))

data_separate %>%
  count(flavor,sort = TRUE)

## # A tibble: 50 x 2
##    flavor           n
##    <chr>        <int>
##  1 Earthy        5487
##  2 Sweet         5221
##  3 Citrus        2617
##  4 Pungent       2238
##  5 Berry         1753
##  6 Pine          1485
##  7 Flowery       1318
##  8 Woody         1268
##  9 Diesel        1189
## 10 Spicy/Herbal  1114
## # ... with 40 more rows
…
